# Blender MTL File: 'car_with_logo.blend'
# Material Count: 14

newmtl Black_Plastic
Ns 25.490190
Ka 1.000000 1.000000 1.000000
Kd 0.145100 0.145100 0.145100
Ks 0.950000 0.950000 0.950000
Ke 0.000000 0.000000 0.000000
Ni 1.000000
d 1.000000
illum 2

newmtl Material__19
Ns 23.529411
Ka 1.000000 1.000000 1.000000
Kd 1.000000 1.000000 1.000000
Ks 0.045000 0.045000 0.045000
Ke 0.000000 0.000000 0.000000
Ni 1.500000
d 1.000000
illum 3

newmtl SL_logo_tests
Ns 23.529411
Ka 0.686300 0.686300 0.686300
Kd 0.843100 0.843100 0.843100
Ks 0.288000 0.288000 0.288000
Ke 0.000000 0.000000 0.000000
Ni 1.500000
d 1.000000
illum 3
map_Kd logo_starline_blue__with_bg_texture.png

newmtl body_color
Ns 23.529411
Ka 0.686300 0.686300 0.686300
Kd 0.843100 0.843100 0.843100
Ks 0.288000 0.288000 0.288000
Ke 0.000000 0.000000 0.000000
Ni 1.500000
d 1.000000
illum 3
map_Kd logo_starline_blue__with_bg_texture.png

newmtl glass3
Ns 15.686281
Ka 0.120267 0.120267 0.120267
Kd 0.090000 0.090000 0.090000
Ks 0.104400 0.104400 0.104400
Ke 0.000000 0.000000 0.000000
Ni 1.500000
d 0.700000
illum 6

newmtl metal
Ns 23.529411
Ka 0.111567 0.111567 0.111567
Kd 0.552900 0.552900 0.552900
Ks 0.765000 0.765000 0.765000
Ke 0.000000 0.000000 0.000000
Ni 1.500000
d 1.000000
illum 3

newmtl metal2
Ns 23.529411
Ka 0.686300 0.686300 0.686300
Kd 0.843100 0.843100 0.843100
Ks 0.288000 0.288000 0.288000
Ke 0.000000 0.000000 0.000000
Ni 1.500000
d 1.000000
illum 3

newmtl plt1
Ns 23.529411
Ka 0.545100 0.545100 0.545100
Kd 0.580400 0.639200 0.662700
Ks 0.346700 0.346700 0.346700
Ke 0.000000 0.000000 0.000000
Ni 1.500000
d 0.500000
illum 6

newmtl plt3
Ns 23.529411
Ka 0.376467 0.376467 0.376467
Kd 0.988200 0.141200 0.000000
Ks 0.612000 0.612000 0.612000
Ke 0.000000 0.000000 0.000000
Ni 1.500000
d 0.750000
illum 6

newmtl plt4
Ns 23.529411
Ka 0.600000 0.600000 0.600000
Kd 1.000000 0.800000 0.000000
Ks 0.612000 0.612000 0.612000
Ke 0.000000 0.000000 0.000000
Ni 1.500000
d 0.750000
illum 6

newmtl tire
Ns 25.490190
Ka 1.000000 1.000000 1.000000
Kd 0.215700 0.215700 0.215700
Ks 0.432000 0.432000 0.432000
Ke 0.000000 0.000000 0.000000
Ni 1.500000
d 1.000000
illum 3

newmtl tirehouse
Ns 23.529411
Ka 0.120300 0.120300 0.120300
Kd 0.156900 0.156900 0.156900
Ks 0.198000 0.198000 0.198000
Ke 0.000000 0.000000 0.000000
Ni 1.500000
d 1.000000
illum 3

newmtl wire_086086086
Ns 29.411772
Ka 0.337300 0.337300 0.337300
Kd 0.337300 0.337300 0.337300
Ks 0.350000 0.350000 0.350000
Ke 0.000000 0.000000 0.000000
Ni 1.000000
d 1.000000
illum 3

newmtl wire_115115115
Ns 29.411772
Ka 1.000000 1.000000 1.000000
Kd 0.451000 0.451000 0.451000
Ks 0.350000 0.350000 0.350000
Ke 0.000000 0.000000 0.000000
Ni 1.000000
d 1.000000
illum 2
